{
    "@class": "com.kony.gen.viz.model.component.KVizImage2",
    "DNDConfig": null,
    "__parentReadjusting__": false,
    "_base64_": null,
    "_height_": {
        "type": "string",
        "value": "30dp"
    },
    "_margin_": [
        0,
        0,
        0,
        0
    ],
    "_padding_": [
        0,
        0,
        0,
        0
    ],
    "_right_": {
        "type": "string",
        "value": "25dp"
    },
    "_skin_": "sfb7a5024e7d499bb46ce112f9da73b0",
    "_src_": "imagedrag.png",
    "_width_": {
        "type": "string",
        "value": "30dp"
    },
    "canUpdateUI": true,
    "centery": {
        "type": "string",
        "value": "50.00%"
    },
    "containerId": true,
    "containerweight": 100,
    "context": {
        "channel": "mobile",
        "platform": "android",
        "templateType": "segments",
        "topLevelBox": null
    },
    "id": "imgOk",
    "imagescalemode": 1,
    "info": null,
    "isvisible": true,
    "kuid": "31369f53e17a409f8c18b73a92deb843",
    "name": "kony.ui.Image2",
    "parent": "flxOkContainer",
    "pf": "tplSegVCheckRow",
    "srcType": 1,
    "wType": "Image",
    "widgetalignment": 5
}