{
    "@class": "com.kony.gen.viz.model.component.KVizButton",
    "DNDConfig": null,
    "__parentReadjusting__": false,
    "_height_": {
        "type": "string",
        "value": "40dp"
    },
    "_margin_": [
        6,
        6,
        6,
        6
    ],
    "_padding_": [
        0,
        0,
        0,
        0
    ],
    "_right_": {
        "type": "string",
        "value": "27%"
    },
    "_skin_": "s169f25e785447f8a25f047c208fbe10",
    "_text_": "Ok",
    "_top_": {
        "type": "string",
        "value": "13dp"
    },
    "_width_": {
        "type": "string",
        "value": "40dp"
    },
    "canUpdateUI": true,
    "centery": {
        "type": "string",
        "value": "62%"
    },
    "containerweight": 100,
    "contentalignment": 5,
    "displaytext": true,
    "focusskin": "s08aa357e50e4fd6aeaadbc4da5b822b",
    "id": "btnYes",
    "ide_onClick": "AS_Button_8d4ec929f4974af29aaa73760d475c9b",
    "info": null,
    "isvisible": true,
    "kuid": "43b0be2f26c74c63bfdeaf3853215034",
    "name": "kony.ui.Button",
    "parent": "flxWarningMsgContainer",
    "pf": "Login",
    "wType": "Button",
    "zindex": 1
}