{
    "@class": "com.kony.gen.viz.model.component.KVizLabel",
    "DNDConfig": null,
    "_margin_": [
        2,
        4,
        2,
        4
    ],
    "_padding_": [
        0,
        0,
        0,
        0
    ],
    "_skin_": "se4b1255cd914098b23fa5063dfe90c8",
    "_text_": "",
    "_wrapping_": 2,
    "android": {
        "textStyle": {
            "letterSpacing": 0,
            "strikeThrough": false
        }
    },
    "canUpdateUI": true,
    "containerweight": 100,
    "contentalignment": 5,
    "id": "lblTitle",
    "info": null,
    "ipad": {
        "psp": {
            "wrapping": 2
        }
    },
    "iphone": {
        "psp": {
            "wrapping": 2
        }
    },
    "isvisible": true,
    "kuid": "ef8ce1d5c7ab4f7984e543d3feaefb50",
    "margininpixel": false,
    "name": "kony.ui.Label",
    "parent": "hbxTitleContainer",
    "pf": "PopupProgress",
    "tooltip": "",
    "wType": "Label"
}