{
    "@class": "com.kony.gen.viz.model.container.KVizForm",
    "DNDConfig": null,
    "_margin_": [
        0,
        0,
        0,
        0
    ],
    "_orientation_": 1,
    "_padding_": [
        0,
        0,
        0,
        0
    ],
    "_percent_": true,
    "_skin_": "sd695df5af894364b88c651ecab5c502",
    "_title_": null,
    "addWidgetsdone": false,
    "allboxes": [],
    "canUpdateUI": true,
    "children": [
        "hbxTitleContainer",
        "hbxMessageContainer",
        "hbxProgressContainer"
    ],
    "containerheight": 20,
    "containerheightreference": 1,
    "containerweight": 40,
    "currentLocale": "en_GB",
    "desktopweb": {
        "psp": {
            "titleBarConfig": {
                "closeIcon": "close.png",
                "maxIcon": "max.png",
                "minIcon": "min.png"
            }
        }
    },
    "device": "GalaxyS5",
    "displayorientation": 3,
    "enabledforidletimeout": false,
    "id": "PopupProgress",
    "info": null,
    "initdone": false,
    "inputaccessoryviewtype": 4,
    "ismodal": true,
    "isvisible": true,
    "kuid": "e92fd4df0af0473faef2d50260ed6a0e",
    "name": "kony.ui.Popup",
    "paddinginpixel": false,
    "platform": "android",
    "prevDevice": "iPhone6",
    "prevPlatform": "iphone",
    "retainscrollposition": false,
    "shellCSS": "and_GalaxyS5",
    "titlebar": true,
    "transparencybehindthepopup": 60,
    "wType": "Popup"
}