{
    "AS_Button_6253f731806141048fc89f31f10ca6ac": {
        "id": "AS_Button_6253f731806141048fc89f31f10ca6ac",
        "type": "ACTION_SEQUENCE",
        "name": "ActionPopupMessageOk",
        "params": [{
            "datatype": "collection",
            "name": "eventobject"
        }],
        "contextObj": {
            "name": "PopupMessage",
            "type": "popups",
            "platform": "",
            "KUID": "2037a9af27864381a0b87f5f29c20def"
        },
        "language": "js",
        "actions": [{
            "id": "INVOKE_FUNCTION___40aadf4f7960454ebce75feefc71be3a",
            "type": "INVOKE_FUNCTION",
            "sequenceKUID": "onClickMessagePopupOkButton",
            "display": "onClickMessagePopupOkButton",
            "inputparams": [],
            "parentId": null,
            "callbackType": null
        }]
    }
}