{
    "@class": "com.kony.gen.viz.model.container.KVizTab",
    "DNDConfig": null,
    "_height_": {
        "type": "string",
        "value": "85%"
    },
    "_image_": null,
    "_margin_": [
        0,
        0,
        0,
        0
    ],
    "_orientation_": 6,
    "_padding_": [
        0,
        0,
        0,
        0
    ],
    "_percent_": true,
    "_skin_": "s2d6f843c2a44050a281c817f99195a3",
    "_width_": {
        "type": "string",
        "value": "100%"
    },
    "allboxes": [],
    "canUpdateUI": true,
    "children": [
        "segVehicleChecksThree"
    ],
    "clipbounds": true,
    "containerweight": 93,
    "enablescrolling": true,
    "id": "tabThree",
    "info": null,
    "isvisible": true,
    "kuid": "78066f678ac948979c7638f3478fe3ce",
    "layouttype": 2,
    "margininpixel": false,
    "name": "kony.ui.Tab",
    "oninit": null,
    "paddinginpixel": false,
    "parent": "tabPaneOuter",
    "pf": "Home",
    "scrolldirection": 1,
    "snapgridsize": 10,
    "snaptogrid": true,
    "tabname": "",
    "tabpaneId": "tabPaneOuter",
    "texti18n": "common.category.exterior",
    "wType": "Tab"
}